{
  "Description": "Basic nodejs libraries for serverless development",
  "Resources": {
    "NodeLayer": {
      "Type": "AWS::Lambda::LayerVersion",
      "Properties": {
        "CompatibleRuntimes": ["nodejs12.x"],
        "Content": {
          "S3Bucket": "sls-001",
          "S3Key": "node-dev-layer.zip"
        },
        "Description": "baconjs ramda immutable luxon axios",
        "LayerName": "node-dev-layer",
        "LicenseInfo": "MIT"
      }
    },
    "ParsersLayer": {
      "Type": "AWS::Lambda::LayerVersion",
      "Properties": {
        "CompatibleRuntimes": ["nodejs12.x"],
        "Content": {
          "S3Bucket": "sls-001",
          "S3Key": "parsers-layer.zip"
        },
        "Description": "csv-parser",
        "LayerName": "parsers-layer",
        "LicenseInfo": "MIT"
      }
    }
  },

  "Outputs": {
    "CommonNodeLayer": {
      "Description": "baconjs ramda immutable luxon axios",
      "Value": {
        "Ref": "NodeLayer"
      },
      "Export": {
        "Name": { "Fn::Sub": "${AWS::StackName}-common" }
      }
    },
    "Parsers": {
      "Description": "csv-parser",
      "Value": {
        "Ref": "ParsersLayer"
      },
      "Export": {
        "Name": { "Fn::Sub": "${AWS::StackName}-parsers" }
      }
    }
  }
}
